<?xml version="1.0" standalone="no"?>
<!DOCTYPE svg PUBLIC "-//W3C//DTD SVG 1.1//EN" "http://www.w3.org/Graphics/SVG/1.1/DTD/svg11.dtd" >
<svg xmlns="http://www.w3.org/2000/svg">
<metadata>Generated by IcoMoon</metadata>
<defs>
<font id="icomoon" horiz-adv-x="1024">
<font-face units-per-em="1024" ascent="960" descent="-64" />
<missing-glyph horiz-adv-x="1024" />
<glyph unicode="&#x20;" horiz-adv-x="512" d="" />
<glyph unicode="&#xe600;" glyph-name="arr_down_small" horiz-adv-x="1660" d="M1660.153 766.163l-193.664 193.837-636.498-636.326-636.153 636.326-193.837-193.837 829.99-830.163z" />
<glyph unicode="&#xe601;" glyph-name="arr_next_small" horiz-adv-x="1319" d="M1299.315 402.212c12.79 12.778 19.298 29.519 19.298 46.022 0 16.73-6.505 33.471-19.298 46.022l-446.739 446.736c-25.341 25.344-66.712 25.344-92.507 0l-61.831-61.819c-25.33-25.344-25.33-66.712 0-92.521l229.885-229.644h-862.811c-36.033 0-65.315-29.519-65.315-65.317v-87.161c0-36.025 29.055-65.317 65.315-65.317h863.035l-229.885-229.871c-25.33-25.344-25.33-66.939 0-92.51l61.834-61.831c25.33-25.333 66.942-25.333 92.51 0l446.51 447.21z" />
<glyph unicode="&#xe602;" glyph-name="arr_prev_small" horiz-adv-x="1319" d="M19.295 402.212c-12.79 12.778-19.298 29.519-19.298 46.022 0 16.73 6.505 33.471 19.298 46.022l446.736 446.736c25.341 25.344 66.712 25.344 92.507 0l61.834-61.819c25.33-25.344 25.33-66.712 0-92.521l-229.885-229.644h862.808c36.030 0 65.312-29.519 65.312-65.317v-87.161c0-36.025-29.055-65.317-65.312-65.317h-863.035l229.885-229.871c25.33-25.344 25.33-66.939 0-92.51l-61.834-61.831c-25.33-25.333-66.942-25.333-92.51 0l-446.507 447.21z" />
<glyph unicode="&#xe603;" glyph-name="arr_up_small" horiz-adv-x="1660" d="M1660.153 129.837l-193.664-193.837-636.498 636.153-636.153-636.153-193.837 193.837 829.99 830.163z" />
<glyph unicode="&#xe604;" glyph-name="bullet" horiz-adv-x="632" d="M119.655 960l-119.655-119.548 392.558-392.452-392.558-392.345 119.655-119.655 512 512z" />
<glyph unicode="&#xe605;" glyph-name="call" horiz-adv-x="1023" d="M391.272 330.533c91.512-90.781 197.381-177.549 238.947-135.67 59.601 59.998 96.235 112.159 228.331 6.771s31.18-176.337-26.478-234.454c-66.518-67.020-315.747-4.66-562.761 240.494-247.035 245.217-311.275 493.944-244.652 560.964 57.637 58.138 127.833 159.514 234.12 28.17 106.454-131.26 54.523-168.333-4.974-228.248-41.65-41.88 45.955-147.163 137.467-238.028zM523.912 763.914c0 0-27.585 4.326-46.958-15.026-19.832-19.916-20.731-54.209 0.251-75.191 12.413-12.309 29.884-15.005 29.884-15.005 34.022-6.374 85.305-17.157 139.995-71.764 54.523-54.606 65.39-105.953 71.743-139.995 0 0 2.612-17.471 15.047-29.905 20.982-20.961 55.275-20.062 75.107-0.23 19.352 19.352 15.109 46.937 15.109 46.937-10.867 68.963-44.325 141.061-101.731 198.447-57.386 57.49-129.463 90.864-198.447 101.731zM782.858 722.683c100.080-100.080 142.775-213.703 128.899-305.779 0 0-4.827-29.153 14.211-48.17 21.379-21.462 55.338-20.25 75.421-0.167 12.894 12.894 15.757 33.876 15.757 33.876 11.431 79.517-3.030 239.595-158.95 395.598-155.982 155.92-316.103 170.36-395.577 158.929 0 0-20.982-2.779-33.876-15.757-20.083-19.999-21.316-53.959 0.084-75.421 19.101-19.017 48.232-14.211 48.232-14.211 92.076 13.876 205.72-28.818 305.8-128.899z" />
<glyph unicode="&#xe606;" glyph-name="list_tick" horiz-adv-x="1315" d="M1302.080 800.413l-146.573 146.573c-17.349 17.353-45.473 17.353-62.826 0l-610.577-610.577-259.691 259.675c-17.353 17.353-45.477 17.353-62.826 0l-146.573-146.569c-17.353-17.353-17.353-45.477 0-62.826l437.679-437.663c8.667-8.682 20.039-13.026 31.411-13.026s22.744 4.343 31.411 13.026l788.565 788.565c8.326 8.326 13.010 19.635 13.010 31.411s-4.683 23.085-13.010 31.411z" />
<glyph unicode="&#xe608;" glyph-name="phone" horiz-adv-x="603" d="M504.344 960h-429.967c-41.098 0-74.376-33.465-74.376-74.376v-873.060c0-41.098 33.278-74.376 74.376-74.376h429.967c41.098 0 74.376 33.278 74.376 74.376v873.060c0 40.912-33.278 74.376-74.376 74.376zM183.288 914.713h212.145c5.446 0 9.821-8.005 9.821-17.826 0-10.007-4.375-18.012-9.821-18.012h-212.145c-5.492 0-9.681 8.005-9.681 18.012 0 9.821 4.189 17.826 9.681 17.826zM289.453 11.633c-26.204 0-47.66 21.27-47.66 47.474s21.456 47.474 47.66 47.474c25.971 0 47.241-21.27 47.241-47.474s-21.27-47.474-47.241-47.474zM522.868 174.348h-467.062v659.985h467.062v-659.985z" />
<glyph unicode="&#xe609;" glyph-name="pin" horiz-adv-x="705" d="M688.782 705.109c-3.669 13.668-11.051 28.231-16.555 41.003-65.508 157.44-208.668 213.888-324.281 213.888-154.724 0-325.163-103.78-347.947-317.668v-43.662c0-1.835 0.612-18.219 1.493-26.439 12.786-101.888 93.227-210.233 153.287-312.178 64.612-109.227 131.669-216.661 198.101-324.053 41.003 70.116 81.835 141.113 121.842 209.394 10.951 19.996 23.609 40.007 34.503 59.108 7.282 12.772 21.22 25.5 27.563 37.333 64.612 118.329 168.661 237.554 168.661 355.001v48.228c0 12.715-15.787 57.33-16.668 60.046zM350.777 485.774c-45.497 0-95.275 22.727-119.836 85.561-3.669 9.998-3.385 30.052-3.385 31.886v28.231c0 80.057 67.996 116.494 127.161 116.494 72.804 0 129.124-58.283 129.124-131.115s-60.231-131.058-133.063-131.058z" />
<glyph unicode="&#xe60a;" glyph-name="tick_carousel" d="M866.727 14.39h-787.844v787.844h580.838l49.24 78.883h-630.078c-43.528 0-78.883-35.354-78.883-78.883v-787.844c0-43.43 35.354-78.489 78.883-78.489h787.844c43.43 0 78.883 34.961 78.883 78.489v520.666l-78.883-126.744v-393.922zM999.38 951.137c-9.553 5.81-19.992 8.863-30.332 8.863-17.726 0-35.453-8.863-46.187-25.014l-428.193-617.67-165.841 189.181c-22.355 20.385-57.316 19.204-78.095-3.151-20.385-22.257-19.007-57.316 3.25-78.095l209.271-238.618 1.97-1.182 4.235-4.235 10.734-5.023 2.265-1.182 16.84-2.659h0.886c14.969 0 29.938 5.416 40.771 17.333l4.629 7.485 0.394 0.394 469.259 677.053c16.545 25.408 9.553 59.581-15.855 76.519z" />
<glyph unicode="&#xe900;" glyph-name="file_upload" horiz-adv-x="820" d="M779.331 73.429h-738.444c-22.557 0-40.887-18.479-40.887-40.887v-54.565c0-22.55 18.479-40.882 40.887-40.882h738.153c22.55 0 40.887 18.479 40.887 40.882v54.565c0.435 22.699-18.045 40.887-40.596 40.887v0zM381.521 146.622c7.999-8.006 18.479-12.079 28.81-12.079 10.473 0 20.953 4.071 28.81 12.079l279.659 279.659c15.866 15.866 15.866 41.762 0 57.91l-38.699 38.708c-15.866 15.857-41.762 15.857-57.919 0l-143.758-143.909v540.123c0 22.557-18.479 40.887-40.887 40.887h-54.565c-22.552 0-40.889-18.188-40.889-40.887v-540.265l-143.9 143.909c-15.866 15.857-41.904 15.857-57.911 0l-38.708-38.708c-15.858-15.857-15.858-41.904 0-57.911l279.958-279.516z" />
<glyph unicode="&#xe901;" glyph-name="magnifier" horiz-adv-x="992" d="M689.126 292.466c65.364 70.77 106.149 165.541 106.149 269.891 0.003 218.916-178.128 397.643-397.632 397.643-219.514 0-397.643-178.726-397.643-397.643 0-218.901 178.128-397.63 397.643-397.63 89.366 0 171.527 29.381 238.1 79.163l295.679-295.679c7.205-7.197 16.196-10.79 25.19-10.79 9.002 0 18.593 3.593 25.198 10.79 13.788 13.799 13.788 36.589 0 50.975l-292.684 293.279zM71.968 562.357c0 179.33 145.747 325.674 325.674 325.674 179.33 0 325.666-145.747 325.666-325.674s-145.736-325.664-325.666-325.664c-179.928 0-325.674 146.337-325.674 325.664v0z" />
<glyph unicode="&#xe902;" glyph-name="icon_people" horiz-adv-x="1062" d="M662.308 240.91c-26.204 4.166-26.806 76.227-26.806 76.227s77.001 76.227 93.783 178.727c45.137 0 73.022 108.968 27.869 147.311 1.89 40.355 58.035 316.824-226.2 316.824-284.232 0-228.084-276.469-226.202-316.827-45.149-38.343-17.268-147.311 27.872-147.311 16.782-102.5 93.783-178.727 93.783-178.727s-0.601-72.059-26.806-76.227c-84.408-13.425-399.602-152.449-399.602-304.907h1061.911c0 152.458-315.191 291.482-399.602 304.91v0z" />
<glyph unicode="&#xe903;" glyph-name="icon_globe" d="M874.036 810.041c96.699-96.709 149.959-225.283 149.959-362.040s-53.262-265.328-149.959-362.037c-96.709-96.699-225.281-149.961-362.037-149.961s-265.331 53.265-362.040 149.961c-96.697 96.707-149.959 225.281-149.959 362.037s53.252 265.331 149.959 362.040c96.709 96.697 225.283 149.959 362.040 149.959s265.331-53.262 362.037-149.959v0zM828.774 131.216c63.067 63.057 104.989 141.611 122.274 227.058-13.467-19.835-26.357-27.187-34.335 17.207-8.222 72.392-74.717 26.152-116.522 51.865-44.005-29.657-142.909 57.657-126.094-40.832 25.927-44.412 139.999 59.455 83.144-34.537-36.27-65.615-132.647-210.926-120.107-286.248 1.582-109.744-112.129-22.89-151.306 13.515-26.357 72.919-8.985 200.369-77.899 236.083-74.804 3.252-139.004 10.050-167.996 93.672-17.442 59.822 18.562 148.894 82.674 162.644 93.857 58.965 127.382-69.052 215.388-71.434 27.335 28.595 101.817 37.685 107.997 69.744-57.755 10.197 73.262 48.565-5.527 70.382-43.477-5.107-71.484-45.070-48.37-78.954-84.237-19.64-86.944 121.904-167.909 77.254-2.060-70.584-132.227-22.88-45.040-8.565 29.952 13.087-48.857 51.017-6.28 44.122 20.92 1.132 91.329 25.81 72.277 42.402 39.207 24.335 72.157-58.292 110.534 1.885 27.705 46.26-11.62 54.805-46.35 31.347-19.58 21.922 34.572 69.277 82.334 89.744 15.917 6.817 31.112 10.527 42.745 9.482 24.052-27.792 68.544-32.607 70.879 3.34-59.58 28.535-125.272 43.602-193.289 43.602-97.627 0-190.469-31.015-267.313-88.387 20.655-9.452 32.372-21.24 12.48-36.29-15.447-46.055-78.162-107.879-133.222-99.129-28.582-49.297-47.412-103.602-55.457-160.526 46.112-15.252 56.747-45.45 46.835-55.547-23.497-20.487-37.94-49.53-45.38-81.327 15.007-91.834 58.172-176.474 125.272-243.573 84.619-84.607 197.119-131.209 316.785-131.209 119.657 0 232.166 46.602 316.775 131.209v0z" />
<glyph unicode="&#xe904;" glyph-name="mail" horiz-adv-x="1481" d="M1419.397 960h-1357.65c-33.987 0-61.747-27.771-61.747-61.747v-898.642c0-33.956 27.761-61.716 61.747-61.716h1357.65c33.956 0 61.716 27.761 61.716 61.716v898.642c0.010 33.976-27.761 61.747-61.716 61.747zM966.175 406.088c114.514-77.271 410.552-306.452 410.552-306.452 11.786-7.987 12.687-28.416 6.769-40.653-5.949-12.216-24.33-19.589-36.116-11.612 0 0-315.116 227.461-435.763 310.067-6.615 4.516-12.534-0.932-12.534-0.932l-132.239-105.513c-7.209-5.919-16.732-9.196-26.798-9.196s-19.599 3.287-26.819 9.196l-133.755 106.711c0 0-4.608 4.004-9.82 0.41-119.204-82.688-432.927-310.733-432.927-310.733-11.817-7.977-34.232-0.604-40.12 11.612-5.878 12.237-5.059 32.666 6.707 40.653 0 0 296.448 228.485 409.17 305.306 6.42 4.434-0.317 10.844-0.317 10.844l-418.058 376.412c-15.227 12.472-19.773 34.755-10.363 50.801 5.55 9.533 15.391 15.237 26.255 15.237 7.67 0 15.36-2.908 21.75-8.1l594.504-521.052c3.492-2.857 8.52-4.577 13.793-4.577 5.222 0 10.23 1.72 13.742 4.577l594.575 521.052c6.308 5.192 14.111 8.1 21.729 8.1 10.834 0 20.644-5.704 26.266-15.237 9.339-16.046 4.823-38.328-10.383-50.801l-419.174-377.58c0-0.020-5.898-5.038-0.625-8.54z" />
<glyph unicode="&#xe905;" glyph-name="calendar" d="M664.001 487.38h157.535v-157.535h-157.535v157.535zM188.981 724.487c2.563-0.523 5.222-0.8 7.942-0.8 17.686 0 32.634 11.634 37.618 27.671 1.151 3.702 1.769 7.637 1.769 11.717v157.538c0 4.083-0.618 8.015-1.769 11.717-4.985 16.037-19.932 27.671-37.618 27.671-2.72 0-5.378-0.274-7.942-0.8-17.954-3.671-31.446-19.545-31.446-38.591v-157.532c0-19.046 13.489-34.92 31.446-38.591zM427.691 487.38h157.535v-157.535h-157.535v157.535zM666.063 251.085h157.535v-157.55h-157.535v157.55zM191.381 251.085h157.535v-157.55h-157.535v157.55zM427.691 251.085h157.535v-157.55h-157.535v157.55zM191.381 487.38h157.535v-157.535h-157.535v157.535zM827.078 723.69c21.766 0 39.388 17.621 39.388 39.388v157.535c0 21.766-17.621 39.388-39.388 39.388s-39.388-17.621-39.388-39.388v-157.535c0-21.766 17.621-39.388 39.388-39.388zM1023.889 720.299c-2.283 45.775-39.523 82.166-85.2 82.166h-32.849v-39.388c0-42.034-33.129-76.557-74.711-78.671-1.345-0.068-2.692-0.105-4.049-0.105-2.717 0-5.4 0.138-8.046 0.406-1.323 0.135-2.634 0.305-3.938 0.505-37.791 5.794-66.794 38.541-66.794 77.864v39.388h-472.605v-39.388c0-37.966-27.037-69.806-62.911-77.172-5.126-1.052-10.431-1.603-15.861-1.603-1.357 0-2.708 0.034-4.049 0.105-41.588 2.114-74.717 36.637-74.717 78.671v39.388h-32.846c-45.677 0-82.917-36.391-85.2-82.166-0.077-1.477-0.114-2.963-0.114-4.458v-693.229c0-47.692 38.197-86.609 85.347-86.609h853.305c47.151 0 85.347 38.917 85.347 86.609v693.229c0 1.495-0.037 2.982-0.111 4.458zM945.222 22.612c0-4.148-2.991-7.837-6.572-7.837h-853.302c-3.582 0-6.572 3.689-6.572 7.837v543.543h866.447v-543.543z" />
<glyph unicode="&#xe906;" glyph-name="euro_sign" d="M512.010 960c-282.329 0-512.010-229.681-512.010-512.010 0-282.313 229.681-511.994 512.010-511.994 282.309 0 511.99 229.681 511.99 511.994 0 282.329-229.681 512.010-511.99 512.010v0zM702.524 249.414l-14.819-13.784c-45.516-42.31-103.498-65.603-163.253-65.603-55.639 0-108.45 19.531-152.706 56.476-36.26 30.273-65.3 72.264-82.263 118.784h-42.828c-5.151 0-9.33 4.178-9.33 9.326v71.599c0 5.151 4.178 9.33 9.33 9.33h25.184c-0.183 4.175-0.257 8.345-0.257 12.446 0 4.12 0.074 8.279 0.257 12.462h-25.184c-5.151 0-9.33 4.178-9.33 9.33v71.579c0 5.171 4.178 9.349 9.33 9.349h42.828c16.979 46.52 46.002 88.511 82.267 118.784 44.271 36.945 97.066 56.476 152.706 56.476 54.227 0 105.941-18.616 149.574-53.83l15.745-12.707c1.93-1.548 3.147-3.813 3.42-6.276 0.257-2.463-0.471-4.925-2.023-6.855l-44.971-55.698c-3.237-4.015-9.104-4.638-13.131-1.401l-15.745 12.707c-27.386 22.114-59.514 33.798-92.872 33.798-55.032 0-105.988-32.218-135.988-84.998h198.751c5.151 0 9.33-4.178 9.33-9.349v-71.571c0-5.151-4.178-9.33-9.33-9.33h-225.009c-0.245-4.167-0.366-8.33-0.366-12.462 0-4.12 0.121-8.283 0.366-12.446h225.012c5.151 0 9.33-4.178 9.33-9.33v-71.599c0-5.147-4.178-9.326-9.33-9.326h-198.751c30-52.795 80.955-85.006 135.988-85.006 36.883 0 73.026 14.73 101.793 41.462l14.819 13.769c1.809 1.689 4.178 2.614 6.703 2.509 2.478-0.089 4.801-1.175 6.49-2.98l48.753-52.434c3.494-3.793 3.28-9.684-0.49-13.201v0z" />
<glyph unicode="&#xe907;" glyph-name="icon_exit" horiz-adv-x="1254" d="M512 12.809c-1.583 4.271-2.16 7.917-1.632 10.838 0.577 2.921-1.289 5.339-5.56 7.192-4.32 1.866-6.431 3.351-6.431 4.406s-3.068 1.866-9.205 2.393c-6.137 0.54-9.205 0.773-9.205 0.773h-249.587c-35.201 0-65.309 12.568-90.384 37.631-25.075 25.075-37.582 55.183-37.582 90.372v563.206c0 35.201 12.507 65.309 37.582 90.384s55.183 37.631 90.384 37.631h256.018c6.898 0 12.372 1.682 16.398 5.18 3.977 3.449 6.665 8.678 7.953 15.588 1.35 6.947 2.16 13.231 2.442 18.791 0.245 5.609 0.147 12.654-0.43 21.185-0.528 8.543-0.761 13.906-0.761 16.017 0 6.947-2.541 12.949-7.622 18.030-5.081 5.032-11.083 7.573-17.981 7.573h-256.018c-63.431 0-117.705-22.535-162.775-67.604s-67.604-99.344-67.604-162.775v-563.194c0-63.48 22.535-117.705 67.604-162.775 45.069-45.118 99.344-67.653 162.775-67.653h256.018c6.947 0 12.372 1.78 16.398 5.229 3.977 3.449 6.665 8.678 8.002 15.588 1.35 6.947 2.111 13.231 2.393 18.791 0.245 5.609 0.147 12.654-0.43 21.197-0.528 8.53-0.761 13.894-0.761 16.005v0zM1239.171 484.011l-435.191 435.191c-10.114 10.114-22.105 15.195-36.011 15.195-13.857 0-25.836-5.081-36.011-15.195-10.114-10.114-15.195-22.154-15.195-36.011v-230.366h-358.394c-13.857 0-25.824-5.081-35.999-15.207-10.126-10.163-15.207-22.142-15.207-35.999v-307.212c0-13.869 5.081-25.849 15.207-35.974 10.163-10.163 22.142-15.244 35.999-15.244h358.394v-230.379c0-13.857 5.081-25.885 15.195-36.011 10.163-10.114 22.154-15.195 36.011-15.195 13.906 0 25.885 5.081 36.011 15.195l435.191 435.191c10.163 10.114 15.195 22.154 15.195 36.011s-5.032 25.898-15.195 36.011v0z" />
</font></defs></svg>